{
  "servers": [
    {
      "url": "http://localhost:1337",
      "description": "Local server"
    },
    {
      "url": "http://localhost:1337",
      "description": "Production server"
    },
    {
      "url": "http://localhost:1337",
      "description": "Development server"
    }

  ]
}
